{
    "word": "xxx",
    "lang": "km",
    "body": [
        {
            "lang": "en",
            "class": "noun",
            "text": ""
        },
        {
            "lang": "en",
            "class": "adjective",
            "text": ""
        }
    ],
    "translations": [
        "",
        ""
    ],
    "glyphs": [
        ""
    ]
}