{
    "word": "PezaK",
    "lang": "km",
    "body": [
        {
            "lang": "en",
            "class": "verb",
            "text": "to die."
        }
    ],
    "translations": [
        "die",
        "perish"
    ],
    "glyphs": [
        ""
    ]
}