{
    "word": "ReLi",
    "lang": "km",
    "body": [
        {
            "lang": "en",
            "class": "noun",
            "text": "A vibrant or wild red, characteristic of flames."
        },
        {
            "lang": "en",
            "class": "adjective",
            "text": "of a vibrant or wild red color."
        }
    ],
    "translations": [
        "red",
        "crimson"
    ],
    "glyphs": [
        "ReLi"
    ]
}