{
    "word": "ReLTjN",
    "lang": "km",
    "body": [
        {
            "lang": "en",
            "class": "noun",
            "text": "Large, destructive flames or fires, uncontrolled and wild."
        },
        {
            "lang": "en",
            "class": "noun",
            "text": "Bonfires or large fire pits."
        }
    ],
    "translations": [
        "inferno",
        "wildfire",
        "bonfire"
    ],
    "glyphs": [
        "ReLD"
    ]
}